teaching_material_book - 1 Introduction
…
The following objects are masked from 'package:base':

    intersect, setdiff, setequal, union

We first load two synthetic data sets. random.cdisc.data::cadsl is a Subject Level Analysis Dataset (ADSL) with one record (row) per subject. The unique identifier per subject is stored in the variable USUBJID. According to CDISC the main purpose of ADSL is to provide a “(…) source for denominators for populations of interest, stratification variables, and other important subject subgroups”.

ADSL <- random.cdisc.data::cadsl

Data Structure for Adverse Event Analysis

ADAE <- random.cdisc.data::cadae
ADAE

# A tibble: 1,934 × 92
   STUDYID USUBJID    SUBJID SITEID   AGE AGEU  SEX   RACE  ETHNIC COUNTRY DTHFL
   <chr>   <chr>      <chr>  <chr>  <int> <fct> <fct> <fct> <fct>  <fct>   <fct>
 1 AB12345 AB12345-B… id-134 BRA-1     47 YEARS M     WHITE NOT H… BRA     Y    
 2 AB12345 AB12345-B… id-134 BRA-1     47 YEARS M     WHITE NOT H… BRA     Y    
 3 AB12345 AB12345-B… id-134 BRA-1     47 YEARS M     WHITE NOT H… BRA     Y    
 4 AB12345 AB12345-B… id-134 BRA-1     47 YEARS M     WHITE NOT H… BRA     Y    
 5 AB12345 AB12345-B… id-141 BRA-1     35 YEARS F     WHITE NOT H… BRA     N    
 6 AB12345 AB12345-B… id-141 BRA-1     35 YEARS F     WHITE NOT H… BRA     N    
 7 AB12345 AB12345-B… id-141 BRA-1     35 YEARS F     WHITE NOT H… BRA     N    
 8 AB12345 AB12345-B… id-141 BRA-1     35 YEARS F     WHITE NOT H… BRA     N    
 9 AB12345 AB12345-B… id-141 BRA-1     35 YEARS F     WHITE NOT H… BRA     N    
10 AB12345 AB12345-B… id-141 BRA-1     35 YEARS F     WHITE NOT H… BRA     N    
# … with 1,924 more rows, and 81 more variables: INVID <chr>, INVNAM <chr>,
#   ARM <fct>, ARMCD <fct>, ACTARM <fct>, ACTARMCD <fct>, TRT01P <fct>,
#   TRT01A <fct>, TRT02P <fct>, TRT02A <fct>, REGION1 <fct>, STRATA1 <fct>,
#   STRATA2 <fct>, BMRKR1 <dbl>, BMRKR2 <fct>, ITTFL <fct>, SAFFL <fct>,
#   BMEASIFL <fct>, BEP01FL <fct>, AEWITHFL <fct>, RANDDT <date>,
#   TRTSDTM <dttm>, TRTEDTM <dttm>, TRT01SDTM <dttm>, TRT01EDTM <dttm>,
#   TRT02SDTM <dttm>, TRT02EDTM <dttm>, AP01SDTM <dttm>, AP01EDTM <dttm>, …

Analysis data-set for time to event (efficacy).

ADTTE <- random.cdisc.data::cadtte
ADTTE

# A tibble: 2,000 × 68
   STUDYID USUBJID    SUBJID SITEID   AGE AGEU  SEX   RACE  ETHNIC COUNTRY DTHFL
   <chr>   <chr>      <chr>  <chr>  <int> <fct> <fct> <fct> <fct>  <fct>   <fct>
 1 AB12345 AB12345-B… id-105 BRA-1     38 YEARS M     BLAC… HISPA… BRA     N    
 2 AB12345 AB12345-B… id-105 BRA-1     38 YEARS M     BLAC… HISPA… BRA     N    
 3 AB12345 AB12345-B… id-105 BRA-1     38 YEARS M     BLAC… HISPA… BRA     N    
 4 AB12345 AB12345-B… id-105 BRA-1     38 YEARS M     BLAC… HISPA… BRA     N    
 5 AB12345 AB12345-B… id-105 BRA-1     38 YEARS M     BLAC… HISPA… BRA     N    
 6 AB12345 AB12345-B… id-134 BRA-1     47 YEARS M     WHITE NOT H… BRA     Y    
 7 AB12345 AB12345-B… id-134 BRA-1     47 YEARS M     WHITE NOT H… BRA     Y    
 8 AB12345 AB12345-B… id-134 BRA-1     47 YEARS M     WHITE NOT H… BRA     Y    
 9 AB12345 AB12345-B… id-134 BRA-1     47 YEARS M     WHITE NOT H… BRA     Y    
10 AB12345 AB12345-B… id-134 BRA-1     47 YEARS M     WHITE NOT H… BRA     Y    
# … with 1,990 more rows, and 57 more variables: INVID <chr>, INVNAM <chr>,
#   ARM <fct>, ARMCD <fct>, ACTARM <fct>, ACTARMCD <fct>, TRT01P <fct>,
#   TRT01A <fct>, TRT02P <fct>, TRT02A <fct>, REGION1 <fct>, STRATA1 <fct>,
#   STRATA2 <fct>, BMRKR1 <dbl>, BMRKR2 <fct>, ITTFL <fct>, SAFFL <fct>,
#   BMEASIFL <fct>, BEP01FL <fct>, AEWITHFL <fct>, RANDDT <date>,
#   TRTSDTM <dttm>, TRTEDTM <dttm>, TRT01SDTM <dttm>, TRT01EDTM <dttm>,
#   TRT02SDTM <dttm>, TRT02EDTM <dttm>, AP01SDTM <dttm>, AP01EDTM <dttm>, …
