Introduction to teal - 2 Data app
…
packageVersion("tidyverse")

[1] '1.3.2.9000'

We can then create a data-frame listing all packages and versions:

(package_table <- tibble(
  package = .packages(),
  version = sapply(
    X = .packages(),
    FUN = function(x) as.character(packageVersion(x))
  )
))

# A tibble: 32 × 2
   package    version   
   <chr>      <chr>     
 1 lubridate  1.9.0     
 2 timechange 0.2.0     
 3 forcats    0.5.2     
 4 stringr    1.5.0     
 5 dplyr      1.0.10    
 6 purrr      1.0.1     
 7 readr      2.1.3     
 8 tidyr      1.2.1     
 9 tibble     3.1.8     
10 tidyverse  1.3.2.9000
# … with 22 more rows
…
